<?xml version="1.0" encoding="UTF-8"?>
<session version="1.0">
<refactoring comment="Move element &apos;Paths.java&apos; to &apos;jpath/src/main/java/com.iwec.jpath&apos;&#x0D;&#x0A;- Original project: &apos;jpath&apos;&#x0D;&#x0A;- Destination element: &apos;jpath/src/main/java/com.iwec.jpath&apos;&#x0D;&#x0A;- Original element: &apos;com.iwec.jpath.constants.Paths.java&apos;&#x0D;&#x0A;- Update references to refactored element" description="Move compilation unit" destination="/src\/main\/java&lt;com.iwec.jpath" element1="/src\/main\/java&lt;com.iwec.jpath.constants{Paths.java" files="0" flags="589830" folders="0" id="org.eclipse.jdt.ui.move" patterns="*" policy="org.eclipse.jdt.ui.moveResources" qualified="false" references="true" stamp="1559732576704" units="1" version="1.0"/>
</session>