io\swagger\api\CategoryApiController.class
io\swagger\configuration\CustomInstantDeserializer$FromDecimalArguments.class
io\swagger\configuration\CustomInstantDeserializer$1.class
io\swagger\configuration\CustomInstantDeserializer$10.class
io\swagger\configuration\HomeController.class
io\swagger\model\Author.class
io\swagger\configuration\CustomInstantDeserializer$8.class
io\swagger\configuration\CustomInstantDeserializer$4.class
io\swagger\configuration\JacksonConfiguration.class
io\swagger\api\ApiResponseMessage.class
io\swagger\model\Book.class
io\swagger\api\AuthorApiController.class
io\swagger\configuration\CustomInstantDeserializer$3.class
io\swagger\configuration\CustomInstantDeserializer$11.class
io\swagger\configuration\CustomInstantDeserializer$6.class
io\swagger\configuration\CustomInstantDeserializer.class
io\swagger\configuration\CustomInstantDeserializer$7.class
io\swagger\Swagger2SpringBoot.class
io\swagger\api\ApiOriginFilter.class
io\swagger\api\BookApi.class
io\swagger\Swagger2SpringBoot$ExitException.class
io\swagger\api\BookApiController.class
io\swagger\configuration\CustomInstantDeserializer$9.class
io\swagger\model\Category.class
io\swagger\configuration\CustomInstantDeserializer$12.class
io\swagger\api\AuthorApi.class
io\swagger\api\NotFoundException.class
io\swagger\api\CategoryApi.class
io\swagger\configuration\CustomInstantDeserializer$5.class
io\swagger\RFC3339DateFormat.class
io\swagger\configuration\CustomInstantDeserializer$FromIntegerArguments.class
io\swagger\api\ApiException.class
io\swagger\configuration\SwaggerDocumentationConfig.class
io\swagger\configuration\CustomInstantDeserializer$2.class
