<?xml version="1.0" encoding="UTF-8"?>
<session version="1.0">
<refactoring accessors="true" comment="Delete element from project &apos;Summary&apos;&#x0D;&#x0A;- Original project: &apos;Summary&apos;&#x0D;&#x0A;- Original element: &apos;com.iwec.summary.App.java&apos;" description="Delete element" element1="/src&lt;com.iwec.summary{App.java" elements="1" flags="589830" id="org.eclipse.jdt.ui.delete" resources="0" stamp="1552295158493" subPackages="false" version="1.0"/>
</session>